%!PS-Adobe-3.0 EPSF-3.0
%%Creator: cairo 1.11.2 (http://cairographics.org)
%%CreationDate: Sat Jul 16 17:02:27 2016
%%Pages: 1
%%DocumentData: Clean7Bit
%%LanguageLevel: 2
%%BoundingBox: 0 0 147 203
%%EndComments
%%BeginProlog
/cairo_eps_state save def
/dict_count countdictstack def
/op_count count 1 sub def
userdict begin
/q { gsave } bind def
/Q { grestore } bind def
/cm { 6 array astore concat } bind def
/w { setlinewidth } bind def
/J { setlinecap } bind def
/j { setlinejoin } bind def
/M { setmiterlimit } bind def
/d { setdash } bind def
/m { moveto } bind def
/l { lineto } bind def
/c { curveto } bind def
/h { closepath } bind def
/re { exch dup neg 3 1 roll 5 3 roll moveto 0 rlineto
      0 exch rlineto 0 rlineto closepath } bind def
/S { stroke } bind def
/f { fill } bind def
/f* { eofill } bind def
/n { newpath } bind def
/W { clip } bind def
/W* { eoclip } bind def
/BT { } bind def
/ET { } bind def
/pdfmark where { pop globaldict /?pdfmark /exec load put }
    { globaldict begin /?pdfmark /pop load def /pdfmark
    /cleartomark load def end } ifelse
/BDC { mark 3 1 roll /BDC pdfmark } bind def
/EMC { mark /EMC pdfmark } bind def
/cairo_store_point { /cairo_point_y exch def /cairo_point_x exch def } def
/Tj { show currentpoint cairo_store_point } bind def
/TJ {
  {
    dup
    type /stringtype eq
    { show } { -0.001 mul 0 cairo_font_matrix dtransform rmoveto } ifelse
  } forall
  currentpoint cairo_store_point
} bind def
/cairo_selectfont { cairo_font_matrix aload pop pop pop 0 0 6 array astore
    cairo_font exch selectfont cairo_point_x cairo_point_y moveto } bind def
/Tf { pop /cairo_font exch def /cairo_font_matrix where
      { pop cairo_selectfont } if } bind def
/Td { matrix translate cairo_font_matrix matrix concatmatrix dup
      /cairo_font_matrix exch def dup 4 get exch 5 get cairo_store_point
      /cairo_font where { pop cairo_selectfont } if } bind def
/Tm { 2 copy 8 2 roll 6 array astore /cairo_font_matrix exch def
      cairo_store_point /cairo_font where { pop cairo_selectfont } if } bind def
/g { setgray } bind def
/rg { setrgbcolor } bind def
/d1 { setcachedevice } bind def
%%EndProlog
%%Page: 1 1
%%BeginPageSetup
%%PageBoundingBox: 0 0 147 203
%%EndPageSetup
q 0 0 147 203 rectclip q
0.901961 g
1.902 163.918 m 49.379 124.242 l 0.324 82.863 l 49.379 39.039 l 146.289
 124.242 l 48.73 202.293 l h
f*
0 g
0.8 w
0 J
0 j
[] 0.0 d
1 M q 1 0 0 -1 0 205 cm
1.902 41.082 m 49.379 80.758 l 0.324 122.137 l 49.379 165.961 l 146.289
 80.758 l 48.73 2.707 l h
S Q
0.8 g
49.379 39.039 m 49.379 0.301 l 142.281 83.879 l 146.289 124.242 l h
f*
0 g
q 1 0 0 -1 0 205 cm
49.379 165.961 m 49.379 204.699 l 142.281 121.121 l 146.289 80.758 l h
S Q
0.501961 g
49.379 39.039 m 0.398 82.867 l 1.551 42.488 l 49.379 0.301 l h
f*
0 g
q 1 0 0 -1 0 205 cm
49.379 165.961 m 0.398 122.133 l 1.551 162.512 l 49.379 204.699 l h
S Q
4 M q 1 0 0 -1 0 205 cm
97.09 40.73 m 49.379 80.758 l 98.703 122.289 l 96.52 162.504 l S Q
0.501961 g
1.996 164.188 m 3.379 123.348 l 25.059 103.801 l 49.379 124.242 l h
f*
0 g
1 M q 1 0 0 -1 0 205 cm
1.996 40.813 m 3.379 81.652 l 25.059 101.199 l 49.379 80.758 l h
S Q
Q Q
showpage
%%Trailer
count op_count sub {pop} repeat
countdictstack dict_count sub {end} repeat
cairo_eps_state restore
%%EOF
