%!PS-Adobe-3.0 EPSF-3.0
%%BoundingBox: 0 -89 313 1 
%%HiResBoundingBox: 0 -88.01051 312.514 0.25 
%%Creator: MetaPost 1.211
%%CreationDate: 2013.05.22:1709
%%Pages: 1
%%DocumentResources: procset mpost-minimal
%%DocumentSuppliedResources: procset mpost-minimal
%%EndComments
%%BeginProlog
%%BeginResource: procset mpost-minimal
/bd{bind def}bind def/fshow {exch findfont exch scalefont setfont show}bd
/fcp{findfont dup length dict begin{1 index/FID ne{def}{pop pop}ifelse}forall}bd
/fmc{FontMatrix dup length array copy dup dup}bd/fmd{/FontMatrix exch def}bd
/Amul{4 -1 roll exch mul 1000 div}bd/ExtendFont{fmc 0 get Amul 0 exch put fmd}bd
/ScaleFont{dup fmc 0 get Amul 0 exch put dup dup 3 get Amul 3 exch put fmd}bd
/SlantFont{fmc 2 get dup 0 eq{pop 1}if Amul FontMatrix 0 get mul 2 exch put fmd}bd
%%EndResource
%%EndProlog
%%BeginSetup
%%EndSetup
%%Page: 1 1
gsave newpath 0 0 moveto
128.57933 0 lineto
128.57933 -87.76051 lineto
0 -87.76051 lineto
 closepath clip
 0 0 0 setrgbcolor 0 0.5 dtransform truncate idtransform setlinewidth pop [] 0 setdash 1 setlinecap
 0 setlinejoin 10 setmiterlimit
newpath 0 0 moveto
128.57933 0 lineto stroke
newpath 0 -20.40941 moveto
128.57933 -20.40941 lineto stroke
newpath 0 -40.81882 moveto
128.57933 -40.81882 lineto stroke
newpath 0 -61.22823 moveto
128.57933 -61.22823 lineto stroke
newpath 0 -81.63763 moveto
128.57933 -81.63763 lineto stroke
 0.5 0 dtransform exch truncate exch idtransform pop setlinewidth
newpath 0 0 moveto
0 -87.76051 lineto stroke
newpath 20.40941 0 moveto
20.40941 -87.76051 lineto stroke
newpath 40.81882 0 moveto
40.81882 -87.76051 lineto stroke
newpath 61.22823 0 moveto
61.22823 -87.76051 lineto stroke
newpath 81.63763 0 moveto
81.63763 -87.76051 lineto stroke
newpath 102.04704 0 moveto
102.04704 -87.76051 lineto stroke
newpath 122.45645 0 moveto
122.45645 -87.76051 lineto stroke
 0 0.5 dtransform truncate idtransform setlinewidth pop
newpath 4.08212 -18.36835 moveto
4.08478 -18.36835 36.73404 -18.36835 36.7367 -18.36835 curveto
37.86394 -18.36835 38.77776 -17.45453 38.77776 -16.32729 curveto
38.77776 -16.3263 38.77776 -4.08311 38.77776 -4.08212 curveto
38.77776 -2.95488 37.86394 -2.04106 36.7367 -2.04106 curveto
36.73404 -2.04106 4.08478 -2.04106 4.08212 -2.04106 curveto
2.95488 -2.04106 2.04106 -2.95488 2.04106 -4.08212 curveto
2.04106 -4.08311 2.04106 -16.3263 2.04106 -16.32729 curveto
2.04106 -17.45453 2.95488 -18.36835 4.08212 -18.36835 curveto closepath stroke
newpath 44.90094 -18.36835 moveto
44.9036 -18.36835 77.55286 -18.36835 77.55551 -18.36835 curveto
78.68275 -18.36835 79.59657 -17.45453 79.59657 -16.32729 curveto
79.59657 -16.3263 79.59657 -4.08311 79.59657 -4.08212 curveto
79.59657 -2.95488 78.68275 -2.04106 77.55551 -2.04106 curveto
77.55286 -2.04106 44.9036 -2.04106 44.90094 -2.04106 curveto
43.7737 -2.04106 42.85988 -2.95488 42.85988 -4.08212 curveto
42.85988 -4.08311 42.85988 -16.3263 42.85988 -16.32729 curveto
42.85988 -17.45453 43.7737 -18.36835 44.90094 -18.36835 curveto closepath stroke
newpath 85.71976 -18.36835 moveto
85.72241 -18.36835 118.37167 -18.36835 118.37433 -18.36835 curveto
119.50157 -18.36835 120.41539 -17.45453 120.41539 -16.32729 curveto
120.41539 -16.3263 120.41539 -4.08311 120.41539 -4.08212 curveto
120.41539 -2.95488 119.50157 -2.04106 118.37433 -2.04106 curveto
118.37167 -2.04106 85.72241 -2.04106 85.71976 -2.04106 curveto
84.59251 -2.04106 83.6787 -2.95488 83.6787 -4.08212 curveto
83.6787 -4.08311 83.6787 -16.3263 83.6787 -16.32729 curveto
83.6787 -17.45453 84.59251 -18.36835 85.71976 -18.36835 curveto closepath stroke
newpath 24.49153 -38.77776 moveto
24.49419 -38.77776 57.14345 -38.77776 57.1461 -38.77776 curveto
58.27335 -38.77776 59.18716 -37.86394 59.18716 -36.7367 curveto
59.18716 -36.7357 59.18716 -24.49252 59.18716 -24.49153 curveto
59.18716 -23.36429 58.27335 -22.45047 57.1461 -22.45047 curveto
57.14345 -22.45047 24.49419 -22.45047 24.49153 -22.45047 curveto
23.36429 -22.45047 22.45047 -23.36429 22.45047 -24.49153 curveto
22.45047 -24.49252 22.45047 -36.7357 22.45047 -36.7367 curveto
22.45047 -37.86394 23.36429 -38.77776 24.49153 -38.77776 curveto closepath stroke
newpath 106.12917 -38.77776 moveto
106.13182 -38.77776 138.78108 -38.77776 138.78374 -38.77776 curveto
139.91098 -38.77776 140.8248 -37.86394 140.8248 -36.7367 curveto
140.8248 -36.7357 140.8248 -24.49252 140.8248 -24.49153 curveto
140.8248 -23.36429 139.91098 -22.45047 138.78374 -22.45047 curveto
138.78108 -22.45047 106.13182 -22.45047 106.12917 -22.45047 curveto
105.00192 -22.45047 104.0881 -23.36429 104.0881 -24.49153 curveto
104.0881 -24.49252 104.0881 -36.7357 104.0881 -36.7367 curveto
104.0881 -37.86394 105.00192 -38.77776 106.12917 -38.77776 curveto closepath stroke
newpath 4.08212 -59.18716 moveto
4.08311 -59.18716 16.3263 -59.18716 16.32729 -59.18716 curveto
17.45453 -59.18716 18.36835 -58.27335 18.36835 -57.1461 curveto
18.36835 -57.14345 18.36835 -24.49419 18.36835 -24.49153 curveto
18.36835 -23.36429 17.45453 -22.45047 16.32729 -22.45047 curveto
16.3263 -22.45047 4.08311 -22.45047 4.08212 -22.45047 curveto
2.95488 -22.45047 2.04106 -23.36429 2.04106 -24.49153 curveto
2.04106 -24.49419 2.04106 -57.14345 2.04106 -57.1461 curveto
2.04106 -58.27335 2.95488 -59.18716 4.08212 -59.18716 curveto closepath stroke
newpath 24.49153 -79.59657 moveto
24.49252 -79.59657 36.7357 -79.59657 36.7367 -79.59657 curveto
37.86394 -79.59657 38.77776 -78.68275 38.77776 -77.55551 curveto
38.77776 -77.55286 38.77776 -44.9036 38.77776 -44.90094 curveto
38.77776 -43.7737 37.86394 -42.85988 36.7367 -42.85988 curveto
36.7357 -42.85988 24.49252 -42.85988 24.49153 -42.85988 curveto
23.36429 -42.85988 22.45047 -43.7737 22.45047 -44.90094 curveto
22.45047 -44.9036 22.45047 -77.55286 22.45047 -77.55551 curveto
22.45047 -78.68275 23.36429 -79.59657 24.49153 -79.59657 curveto closepath stroke
newpath 44.90094 -79.59657 moveto
44.90193 -79.59657 57.14511 -79.59657 57.1461 -79.59657 curveto
58.27335 -79.59657 59.18716 -78.68275 59.18716 -77.55551 curveto
59.18716 -77.55286 59.18716 -44.9036 59.18716 -44.90094 curveto
59.18716 -43.7737 58.27335 -42.85988 57.1461 -42.85988 curveto
57.14511 -42.85988 44.90193 -42.85988 44.90094 -42.85988 curveto
43.7737 -42.85988 42.85988 -43.7737 42.85988 -44.90094 curveto
42.85988 -44.9036 42.85988 -77.55286 42.85988 -77.55551 curveto
42.85988 -78.68275 43.7737 -79.59657 44.90094 -79.59657 curveto closepath stroke
newpath 65.31035 -59.18716 moveto
65.31134 -59.18716 77.55452 -59.18716 77.55551 -59.18716 curveto
78.68275 -59.18716 79.59657 -58.27335 79.59657 -57.1461 curveto
79.59657 -57.14345 79.59657 -24.49419 79.59657 -24.49153 curveto
79.59657 -23.36429 78.68275 -22.45047 77.55551 -22.45047 curveto
77.55452 -22.45047 65.31134 -22.45047 65.31035 -22.45047 curveto
64.1831 -22.45047 63.26929 -23.36429 63.26929 -24.49153 curveto
63.26929 -24.49419 63.26929 -57.14345 63.26929 -57.1461 curveto
63.26929 -58.27335 64.1831 -59.18716 65.31035 -59.18716 curveto closepath stroke
newpath 85.71976 -59.18716 moveto
85.72075 -59.18716 97.96393 -59.18716 97.96492 -59.18716 curveto
99.09216 -59.18716 100.00598 -58.27335 100.00598 -57.1461 curveto
100.00598 -57.14345 100.00598 -24.49419 100.00598 -24.49153 curveto
100.00598 -23.36429 99.09216 -22.45047 97.96492 -22.45047 curveto
97.96393 -22.45047 85.72075 -22.45047 85.71976 -22.45047 curveto
84.59251 -22.45047 83.6787 -23.36429 83.6787 -24.49153 curveto
83.6787 -24.49419 83.6787 -57.14345 83.6787 -57.1461 curveto
83.6787 -58.27335 84.59251 -59.18716 85.71976 -59.18716 curveto closepath stroke
newpath 106.12917 -79.59657 moveto
106.13016 -79.59657 118.37334 -79.59657 118.37433 -79.59657 curveto
119.50157 -79.59657 120.41539 -78.68275 120.41539 -77.55551 curveto
120.41539 -77.55286 120.41539 -44.9036 120.41539 -44.90094 curveto
120.41539 -43.7737 119.50157 -42.85988 118.37433 -42.85988 curveto
118.37334 -42.85988 106.13016 -42.85988 106.12917 -42.85988 curveto
105.00192 -42.85988 104.0881 -43.7737 104.0881 -44.90094 curveto
104.0881 -44.9036 104.0881 -77.55286 104.0881 -77.55551 curveto
104.0881 -78.68275 105.00192 -79.59657 106.12917 -79.59657 curveto closepath stroke
 0.33 0.33 0.33 setrgbcolor
newpath 31.63466 -10.20471 moveto
31.63466 -9.93404 31.52711 -9.67448 31.33572 -9.48311 curveto
31.14435 -9.29172 30.8848 -9.18417 30.61412 -9.18417 curveto
30.34344 -9.18417 30.0839 -9.29172 29.89252 -9.48311 curveto
29.70113 -9.67448 29.59358 -9.93404 29.59358 -10.20471 curveto
29.59358 -10.47539 29.70113 -10.73494 29.89252 -10.92632 curveto
30.0839 -11.1177 30.34344 -11.22525 30.61412 -11.22525 curveto
30.8848 -11.22525 31.14435 -11.1177 31.33572 -10.92632 curveto
31.52711 -10.73494 31.63466 -10.47539 31.63466 -10.20471 curveto closepath fill
 0 0 0 setrgbcolor
newpath 30.61412 -10.20471 moveto
30.61412 -21.47652 21.47652 -30.61412 10.20471 -30.61412 curveto stroke
newpath 13.73433 -28.732 moveto
12.64214 -29.46 11.46336 -30.09276 10.20471 -30.61412 curveto
11.46336 -31.13548 12.74431 -31.52159 14.03136 -31.77914 curveto
 closepath
gsave fill grestore stroke
 0.33 0.33 0.33 setrgbcolor
newpath 72.45348 -10.20471 moveto
72.45348 -9.93404 72.34593 -9.67448 72.15454 -9.48311 curveto
71.96317 -9.29172 71.70361 -9.18417 71.43294 -9.18417 curveto
71.16226 -9.18417 70.90271 -9.29172 70.71133 -9.48311 curveto
70.51994 -9.67448 70.4124 -9.93404 70.4124 -10.20471 curveto
70.4124 -10.47539 70.51994 -10.73494 70.71133 -10.92632 curveto
70.90271 -11.1177 71.16226 -11.22525 71.43294 -11.22525 curveto
71.70361 -11.22525 71.96317 -11.1177 72.15454 -10.92632 curveto
72.34593 -10.73494 72.45348 -10.47539 72.45348 -10.20471 curveto closepath fill
 0 0 0 setrgbcolor
newpath 71.43294 -10.20471 moveto
71.43294 -21.08429 62.90932 -30.05653 52.04405 -30.61412 curveto stroke
newpath 55.47238 -28.55363 moveto
54.41808 -29.33717 53.27318 -30.02946 52.04405 -30.61412 curveto
53.32658 -31.06987 54.62566 -31.38991 55.9252 -31.5814 curveto
 closepath
gsave fill grestore stroke
 0.33 0.33 0.33 setrgbcolor
newpath 113.2723 -10.20471 moveto
113.2723 -9.93404 113.16475 -9.67448 112.97336 -9.48311 curveto
112.78198 -9.29172 112.52243 -9.18417 112.25175 -9.18417 curveto
111.98108 -9.18417 111.72153 -9.29172 111.53015 -9.48311 curveto
111.33876 -9.67448 111.23122 -9.93404 111.23122 -10.20471 curveto
111.23122 -10.47539 111.33876 -10.73494 111.53015 -10.92632 curveto
111.72153 -11.1177 111.98108 -11.22525 112.25175 -11.22525 curveto
112.52243 -11.22525 112.78198 -11.1177 112.97336 -10.92632 curveto
113.16475 -10.73494 113.2723 -10.47539 113.2723 -10.20471 curveto closepath fill
 0 0 0 setrgbcolor
newpath 112.25175 -10.20471 moveto
112.25175 -21.47652 103.11415 -30.61412 91.84235 -30.61412 curveto stroke
newpath 95.37196 -28.732 moveto
94.27977 -29.46 93.101 -30.09276 91.84235 -30.61412 curveto
93.101 -31.13548 94.38194 -31.52159 95.66899 -31.77914 curveto
 closepath
gsave fill grestore stroke
 0.33 0.33 0.33 setrgbcolor
newpath 11.22525 -32.65518 moveto
11.22525 -32.3845 11.1177 -32.12495 10.92632 -31.93358 curveto
10.73494 -31.74219 10.47539 -31.63464 10.20471 -31.63464 curveto
9.93404 -31.63464 9.67448 -31.74219 9.48311 -31.93358 curveto
9.29172 -32.12495 9.18417 -32.3845 9.18417 -32.65518 curveto
9.18417 -32.92586 9.29172 -33.18541 9.48311 -33.37679 curveto
9.67448 -33.56818 9.93404 -33.67572 10.20471 -33.67572 curveto
10.47539 -33.67572 10.73494 -33.56818 10.92632 -33.37679 curveto
11.1177 -33.18541 11.22525 -32.92586 11.22525 -32.65518 curveto closepath fill
 0 0 0 setrgbcolor
newpath 10.20471 -32.65518 moveto
19.9889 -32.65518 28.46622 -39.43694 30.61412 -48.98245 curveto stroke
newpath 28.00873 -45.94716 moveto
28.95834 -46.86003 29.83229 -47.8734 30.61412 -48.98245 curveto
30.84554 -47.6454 30.94412 -46.31087 30.91818 -44.99388 curveto
 closepath
gsave fill grestore stroke
 0.33 0.33 0.33 setrgbcolor
newpath 31.63466 -51.02353 moveto
31.63466 -50.75285 31.52711 -50.4933 31.33572 -50.30193 curveto
31.14435 -50.11053 30.8848 -50.00299 30.61412 -50.00299 curveto
30.34344 -50.00299 30.0839 -50.11053 29.89252 -50.30193 curveto
29.70113 -50.4933 29.59358 -50.75285 29.59358 -51.02353 curveto
29.59358 -51.2942 29.70113 -51.55376 29.89252 -51.74513 curveto
30.0839 -51.93652 30.34344 -52.04407 30.61412 -52.04407 curveto
30.8848 -52.04407 31.14435 -51.93652 31.33572 -51.74513 curveto
31.52711 -51.55376 31.63466 -51.2942 31.63466 -51.02353 curveto closepath fill
 0 0 0 setrgbcolor
newpath 30.61412 -51.02353 moveto
19.34232 -51.02353 10.20471 -60.16113 10.20471 -71.43294 curveto stroke
newpath 9.03969 -67.6063 moveto
9.29724 -68.89334 9.68335 -70.17429 10.20471 -71.43294 curveto
10.72607 -70.17429 11.35883 -68.99551 12.08684 -67.90332 curveto
 closepath
gsave fill grestore stroke
 0.33 0.33 0.33 setrgbcolor
newpath 51.02353 -30.61412 moveto
51.02353 -30.34344 50.91599 -30.0839 50.7246 -29.89252 curveto
50.53322 -29.70113 50.27367 -29.59358 50.00299 -29.59358 curveto
49.73232 -29.59358 49.47276 -29.70113 49.28139 -29.89252 curveto
49.09 -30.0839 48.98245 -30.34344 48.98245 -30.61412 curveto
48.98245 -30.8848 49.09 -31.14435 49.28139 -31.33572 curveto
49.47276 -31.52711 49.73232 -31.63466 50.00299 -31.63466 curveto
50.27367 -31.63466 50.53322 -31.52711 50.7246 -31.33572 curveto
50.91599 -31.14435 51.02353 -30.8848 51.02353 -30.61412 curveto closepath fill
 0 0 0 setrgbcolor
newpath 50.00299 -30.61412 moveto
50.00299 -19.73456 41.47939 -10.76231 30.61412 -10.20471 curveto stroke
newpath 34.49527 -9.23743 moveto
33.19572 -9.42892 31.89665 -9.74896 30.61412 -10.20471 curveto
31.84325 -10.78937 32.98814 -11.48166 34.04245 -12.2652 curveto
 closepath
gsave fill grestore stroke
 0.33 0.33 0.33 setrgbcolor
newpath 52.04407 -71.43294 moveto
52.04407 -71.16226 51.93652 -70.90271 51.74513 -70.71133 curveto
51.55376 -70.51994 51.2942 -70.4124 51.02353 -70.4124 curveto
50.75285 -70.4124 50.4933 -70.51994 50.30193 -70.71133 curveto
50.11053 -70.90271 50.00299 -71.16226 50.00299 -71.43294 curveto
50.00299 -71.70361 50.11053 -71.96317 50.30193 -72.15454 curveto
50.4933 -72.34593 50.75285 -72.45348 51.02353 -72.45348 curveto
51.2942 -72.45348 51.55376 -72.34593 51.74513 -72.15454 curveto
51.93652 -71.96317 52.04407 -71.70361 52.04407 -71.43294 curveto closepath fill
 0 0 0 setrgbcolor
newpath 51.02353 -71.43294 moveto
61.9031 -71.43294 70.87535 -62.90932 71.43294 -52.04405 curveto stroke
newpath 72.40022 -55.9252 moveto
72.20872 -54.62566 71.88869 -53.32658 71.43294 -52.04405 curveto
70.84828 -53.27318 70.15599 -54.41808 69.37245 -55.47238 curveto
 closepath
gsave fill grestore stroke
 0.33 0.33 0.33 setrgbcolor
newpath 72.45348 -50.00299 moveto
72.45348 -49.73232 72.34593 -49.47276 72.15454 -49.28139 curveto
71.96317 -49.09 71.70361 -48.98245 71.43294 -48.98245 curveto
71.16226 -48.98245 70.90271 -49.09 70.71133 -49.28139 curveto
70.51994 -49.47276 70.4124 -49.73232 70.4124 -50.00299 curveto
70.4124 -50.27367 70.51994 -50.53322 70.71133 -50.7246 curveto
70.90271 -50.91599 71.16226 -51.02353 71.43294 -51.02353 curveto
71.70361 -51.02353 71.96317 -50.91599 72.15454 -50.7246 curveto
72.34593 -50.53322 72.45348 -50.27367 72.45348 -50.00299 curveto closepath fill
 0 0 0 setrgbcolor
newpath 71.43294 -50.00299 moveto
97.28477 -50.00299 97.28477 -11.22523 71.43294 -11.22523 curveto stroke
newpath 75.2424 -10.00577 moveto
74.00247 -10.28487 72.73106 -10.68752 71.43294 -11.22523 curveto
72.73106 -11.76295 73.9148 -12.37727 74.98889 -13.0567 curveto
 closepath
gsave fill grestore stroke
grestore
 0 0 0 setrgbcolor 0 0.5 dtransform truncate idtransform setlinewidth pop [] 0 setdash 1 setlinecap
 0 setlinejoin 10 setmiterlimit
newpath 142.86586 -40.81882 moveto
173.47998 -40.81882 lineto stroke
newpath 169.78441 -42.34961 moveto
173.47998 -40.81882 lineto
169.78441 -39.28802 lineto
 closepath
gsave fill grestore stroke
newpath 183.68468 0 moveto
312.264 0 lineto stroke
newpath 183.68468 -20.40941 moveto
312.264 -20.40941 lineto stroke
newpath 183.68468 -40.81882 moveto
312.264 -40.81882 lineto stroke
newpath 183.68468 -61.22823 moveto
312.264 -61.22823 lineto stroke
newpath 183.68468 -81.63763 moveto
312.264 -81.63763 lineto stroke
 0.5 0 dtransform exch truncate exch idtransform pop setlinewidth
newpath 183.68468 0 moveto
183.68468 -87.76051 lineto stroke
newpath 204.09409 0 moveto
204.09409 -87.76051 lineto stroke
newpath 224.5035 0 moveto
224.5035 -87.76051 lineto stroke
newpath 244.9129 0 moveto
244.9129 -87.76051 lineto stroke
newpath 265.32231 0 moveto
265.32231 -87.76051 lineto stroke
newpath 285.73172 0 moveto
285.73172 -87.76051 lineto stroke
newpath 306.14113 0 moveto
306.14113 -87.76051 lineto stroke
 0 0.5 dtransform truncate idtransform setlinewidth pop
newpath 187.7668 -38.77776 moveto
187.76779 -38.77776 200.01097 -38.77776 200.01196 -38.77776 curveto
201.1392 -38.77776 202.05302 -37.86394 202.05302 -36.7367 curveto
202.05302 -36.73404 202.05302 -4.08478 202.05302 -4.08212 curveto
202.05302 -2.95488 201.1392 -2.04106 200.01196 -2.04106 curveto
200.01097 -2.04106 187.76779 -2.04106 187.7668 -2.04106 curveto
186.63956 -2.04106 185.72574 -2.95488 185.72574 -4.08212 curveto
185.72574 -4.08478 185.72574 -36.73404 185.72574 -36.7367 curveto
185.72574 -37.86394 186.63956 -38.77776 187.7668 -38.77776 curveto closepath stroke
newpath 208.17621 -38.77776 moveto
208.1772 -38.77776 220.42038 -38.77776 220.42137 -38.77776 curveto
221.54861 -38.77776 222.46243 -37.86394 222.46243 -36.7367 curveto
222.46243 -36.73404 222.46243 -4.08478 222.46243 -4.08212 curveto
222.46243 -2.95488 221.54861 -2.04106 220.42137 -2.04106 curveto
220.42038 -2.04106 208.1772 -2.04106 208.17621 -2.04106 curveto
207.04897 -2.04106 206.13515 -2.95488 206.13515 -4.08212 curveto
206.13515 -4.08478 206.13515 -36.73404 206.13515 -36.7367 curveto
206.13515 -37.86394 207.04897 -38.77776 208.17621 -38.77776 curveto closepath stroke
newpath 228.58562 -38.77776 moveto
228.58661 -38.77776 240.82979 -38.77776 240.83078 -38.77776 curveto
241.95802 -38.77776 242.87184 -37.86394 242.87184 -36.7367 curveto
242.87184 -36.73404 242.87184 -4.08478 242.87184 -4.08212 curveto
242.87184 -2.95488 241.95802 -2.04106 240.83078 -2.04106 curveto
240.82979 -2.04106 228.58661 -2.04106 228.58562 -2.04106 curveto
227.45837 -2.04106 226.54456 -2.95488 226.54456 -4.08212 curveto
226.54456 -4.08478 226.54456 -36.73404 226.54456 -36.7367 curveto
226.54456 -37.86394 227.45837 -38.77776 228.58562 -38.77776 curveto closepath stroke
newpath 248.99503 -38.77776 moveto
248.99602 -38.77776 261.2392 -38.77776 261.24019 -38.77776 curveto
262.36743 -38.77776 263.28125 -37.86394 263.28125 -36.7367 curveto
263.28125 -36.73404 263.28125 -4.08478 263.28125 -4.08212 curveto
263.28125 -2.95488 262.36743 -2.04106 261.24019 -2.04106 curveto
261.2392 -2.04106 248.99602 -2.04106 248.99503 -2.04106 curveto
247.86778 -2.04106 246.95396 -2.95488 246.95396 -4.08212 curveto
246.95396 -4.08478 246.95396 -36.73404 246.95396 -36.7367 curveto
246.95396 -37.86394 247.86778 -38.77776 248.99503 -38.77776 curveto closepath stroke
newpath 269.40443 -38.77776 moveto
269.40543 -38.77776 281.6486 -38.77776 281.6496 -38.77776 curveto
282.77684 -38.77776 283.69066 -37.86394 283.69066 -36.7367 curveto
283.69066 -36.73404 283.69066 -4.08478 283.69066 -4.08212 curveto
283.69066 -2.95488 282.77684 -2.04106 281.6496 -2.04106 curveto
281.6486 -2.04106 269.40543 -2.04106 269.40443 -2.04106 curveto
268.27719 -2.04106 267.36337 -2.95488 267.36337 -4.08212 curveto
267.36337 -4.08478 267.36337 -36.73404 267.36337 -36.7367 curveto
267.36337 -37.86394 268.27719 -38.77776 269.40443 -38.77776 curveto closepath stroke
newpath 289.81384 -38.77776 moveto
289.81483 -38.77776 302.05801 -38.77776 302.059 -38.77776 curveto
303.18625 -38.77776 304.10007 -37.86394 304.10007 -36.7367 curveto
304.10007 -36.73404 304.10007 -4.08478 304.10007 -4.08212 curveto
304.10007 -2.95488 303.18625 -2.04106 302.059 -2.04106 curveto
302.05801 -2.04106 289.81483 -2.04106 289.81384 -2.04106 curveto
288.6866 -2.04106 287.77278 -2.95488 287.77278 -4.08212 curveto
287.77278 -4.08478 287.77278 -36.73404 287.77278 -36.7367 curveto
287.77278 -37.86394 288.6866 -38.77776 289.81384 -38.77776 curveto closepath stroke
newpath 187.7668 -59.18716 moveto
187.76945 -59.18716 220.41872 -59.18716 220.42137 -59.18716 curveto
221.54861 -59.18716 222.46243 -58.27335 222.46243 -57.1461 curveto
222.46243 -57.14511 222.46243 -44.90193 222.46243 -44.90094 curveto
222.46243 -43.7737 221.54861 -42.85988 220.42137 -42.85988 curveto
220.41872 -42.85988 187.76945 -42.85988 187.7668 -42.85988 curveto
186.63956 -42.85988 185.72574 -43.7737 185.72574 -44.90094 curveto
185.72574 -44.90193 185.72574 -57.14511 185.72574 -57.1461 curveto
185.72574 -58.27335 186.63956 -59.18716 187.7668 -59.18716 curveto closepath stroke
newpath 187.7668 -79.59657 moveto
187.76945 -79.59657 220.41872 -79.59657 220.42137 -79.59657 curveto
221.54861 -79.59657 222.46243 -78.68275 222.46243 -77.55551 curveto
222.46243 -77.55452 222.46243 -65.31134 222.46243 -65.31035 curveto
222.46243 -64.1831 221.54861 -63.26929 220.42137 -63.26929 curveto
220.41872 -63.26929 187.76945 -63.26929 187.7668 -63.26929 curveto
186.63956 -63.26929 185.72574 -64.1831 185.72574 -65.31035 curveto
185.72574 -65.31134 185.72574 -77.55452 185.72574 -77.55551 curveto
185.72574 -78.68275 186.63956 -79.59657 187.7668 -79.59657 curveto closepath stroke
newpath 228.58562 -59.18716 moveto
228.58827 -59.18716 261.23753 -59.18716 261.24019 -59.18716 curveto
262.36743 -59.18716 263.28125 -58.27335 263.28125 -57.1461 curveto
263.28125 -57.14511 263.28125 -44.90193 263.28125 -44.90094 curveto
263.28125 -43.7737 262.36743 -42.85988 261.24019 -42.85988 curveto
261.23753 -42.85988 228.58827 -42.85988 228.58562 -42.85988 curveto
227.45837 -42.85988 226.54456 -43.7737 226.54456 -44.90094 curveto
226.54456 -44.90193 226.54456 -57.14511 226.54456 -57.1461 curveto
226.54456 -58.27335 227.45837 -59.18716 228.58562 -59.18716 curveto closepath stroke
newpath 228.58562 -79.59657 moveto
228.58827 -79.59657 261.23753 -79.59657 261.24019 -79.59657 curveto
262.36743 -79.59657 263.28125 -78.68275 263.28125 -77.55551 curveto
263.28125 -77.55452 263.28125 -65.31134 263.28125 -65.31035 curveto
263.28125 -64.1831 262.36743 -63.26929 261.24019 -63.26929 curveto
261.23753 -63.26929 228.58827 -63.26929 228.58562 -63.26929 curveto
227.45837 -63.26929 226.54456 -64.1831 226.54456 -65.31035 curveto
226.54456 -65.31134 226.54456 -77.55452 226.54456 -77.55551 curveto
226.54456 -78.68275 227.45837 -79.59657 228.58562 -79.59657 curveto closepath stroke
showpage
%%EOF
