%!PS-Adobe-3.0 EPSF-3.0
%%BoundingBox: -21 -21 92 42 
%%HiResBoundingBox: -20.6591 -20.6591 91.3585 41.0682 
%%Creator: MetaPost 1.211
%%CreationDate: 2013.05.22:1709
%%Pages: 1
%%DocumentResources: procset mpost-minimal
%%DocumentSuppliedResources: procset mpost-minimal
%%EndComments
%%BeginProlog
%%BeginResource: procset mpost-minimal
/bd{bind def}bind def/fshow {exch findfont exch scalefont setfont show}bd
/fcp{findfont dup length dict begin{1 index/FID ne{def}{pop pop}ifelse}forall}bd
/fmc{FontMatrix dup length array copy dup dup}bd/fmd{/FontMatrix exch def}bd
/Amul{4 -1 roll exch mul 1000 div}bd/ExtendFont{fmc 0 get Amul 0 exch put fmd}bd
/ScaleFont{dup fmc 0 get Amul 0 exch put dup dup 3 get Amul 3 exch put fmd}bd
/SlantFont{fmc 2 get dup 0 eq{pop 1}if Amul FontMatrix 0 get mul 2 exch put fmd}bd
%%EndResource
%%EndProlog
%%BeginSetup
%%EndSetup
%%Page: 1 1
 0 0 0 setrgbcolor 0 0.5 dtransform truncate idtransform setlinewidth pop [] 0 setdash 0 setlinejoin
 10 setmiterlimit
newpath 20.4091 0 moveto
20.4091 5.41307 18.25845 10.60379 14.43112 14.43112 curveto
10.60379 18.25845 5.41307 20.4091 0 20.4091 curveto
-5.41307 20.4091 -10.60379 18.25845 -14.43112 14.43112 curveto
-18.25845 10.60379 -20.4091 5.41307 -20.4091 0 curveto
-20.4091 -5.41307 -18.25845 -10.60379 -14.43112 -14.43112 curveto
-10.60379 -18.25845 -5.41307 -20.4091 0 -20.4091 curveto
5.41307 -20.4091 10.60379 -18.25845 14.43112 -14.43112 curveto
18.25845 -10.60379 20.4091 -5.41307 20.4091 0 curveto closepath stroke
newpath 91.1085 0 moveto
91.1085 5.41307 88.95786 10.60379 85.13052 14.43112 curveto
81.30319 18.25845 76.11247 20.4091 70.6994 20.4091 curveto
65.28633 20.4091 60.09561 18.25845 56.26828 14.43112 curveto
52.44095 10.60379 50.2903 5.41307 50.2903 0 curveto
50.2903 -5.41307 52.44095 -10.60379 56.26828 -14.43112 curveto
60.09561 -18.25845 65.28633 -20.4091 70.6994 -20.4091 curveto
76.11247 -20.4091 81.30319 -18.25845 85.13052 -14.43112 curveto
88.95786 -10.60379 91.1085 -5.41307 91.1085 0 curveto closepath stroke
newpath 55.7588 20.4091 moveto
55.7588 25.82217 53.60815 31.0129 49.78082 34.84023 curveto
45.95349 38.66756 40.76277 40.8182 35.3497 40.8182 curveto
29.93663 40.8182 24.74591 38.66756 20.91858 34.84023 curveto
17.09125 31.0129 14.9406 25.82217 14.9406 20.4091 curveto
14.9406 14.99603 17.09125 9.80531 20.91858 5.97798 curveto
24.74591 2.15065 29.93663 0 35.3497 0 curveto
40.76277 0 45.95349 2.15065 49.78082 5.97798 curveto
53.60815 9.80531 55.7588 14.99603 55.7588 20.4091 curveto closepath stroke
showpage
%%EOF
