%!PS-Adobe-3.0 EPSF-3.0
%%BoundingBox: 32 -11 280 9 
%%HiResBoundingBox: 32.71072 -10.6588 279.54984 8.9239 
%%Creator: MetaPost 1.211
%%CreationDate: 2013.05.22:1709
%%Pages: 1
%%DocumentResources: procset mpost-minimal
%%DocumentSuppliedResources: procset mpost-minimal
%%EndComments
%%BeginProlog
%%BeginResource: procset mpost-minimal
/bd{bind def}bind def/fshow {exch findfont exch scalefont setfont show}bd
/fcp{findfont dup length dict begin{1 index/FID ne{def}{pop pop}ifelse}forall}bd
/fmc{FontMatrix dup length array copy dup dup}bd/fmd{/FontMatrix exch def}bd
/Amul{4 -1 roll exch mul 1000 div}bd/ExtendFont{fmc 0 get Amul 0 exch put fmd}bd
/ScaleFont{dup fmc 0 get Amul 0 exch put dup dup 3 get Amul 3 exch put fmd}bd
/SlantFont{fmc 2 get dup 0 eq{pop 1}if Amul FontMatrix 0 get mul 2 exch put fmd}bd
%%EndResource
%%EndProlog
%%BeginSetup
%%EndSetup
%%Page: 1 1
 0 0 0 setrgbcolor 0 0.5 dtransform truncate idtransform setlinewidth pop [] 0 setdash 0 setlinejoin
 10 setmiterlimit
gsave newpath 71.12613 -3.6429 moveto
32.96072 -3.6429 lineto
32.96072 1.56123 lineto
71.12613 1.56123 lineto
 closepath
[0 -1 1 0 0 0] concat stroke grestore
 1 1 1 setrgbcolor
newpath 52.04343 -8.6739 moveto
54.344 -8.6739 56.55005 -7.75987 58.17668 -6.13326 curveto
59.8033 -4.50662 60.71733 -2.30057 60.71733 0 curveto
60.71733 2.30057 59.8033 4.50662 58.17668 6.13326 curveto
56.55005 7.75987 54.344 8.6739 52.04343 8.6739 curveto
49.74286 8.6739 47.5368 7.75987 45.91017 6.13326 curveto
44.28355 4.50662 43.36952 2.30057 43.36952 0 curveto
43.36952 -2.30057 44.28355 -4.50662 45.91017 -6.13326 curveto
47.5368 -7.75987 49.74286 -8.6739 52.04343 -8.6739 curveto closepath fill
 0 0 0 setrgbcolor
gsave newpath 52.04343 -8.6739 moveto
54.344 -8.6739 56.55005 -7.75987 58.17668 -6.13326 curveto
59.8033 -4.50662 60.71733 -2.30057 60.71733 0 curveto
60.71733 2.30057 59.8033 4.50662 58.17668 6.13326 curveto
56.55005 7.75987 54.344 8.6739 52.04343 8.6739 curveto
49.74286 8.6739 47.5368 7.75987 45.91017 6.13326 curveto
44.28355 4.50662 43.36952 2.30057 43.36952 0 curveto
43.36952 -2.30057 44.28355 -4.50662 45.91017 -6.13326 curveto
47.5368 -7.75987 49.74286 -8.6739 52.04343 -8.6739 curveto closepath
[0 -1 1 0 0 0] concat stroke grestore
 1 setlinecap
gsave newpath 47.06827 -7.10526 moveto
47.06827 -9.31363 49.55428 -10.4088 52.04343 -10.4088 curveto
54.53258 -10.4088 57.01859 -9.31363 57.01859 -7.10526 curveto
[0 -1 1 0 0 0] concat stroke grestore
gsave newpath 123.16956 -3.6429 moveto
85.00415 -3.6429 lineto
85.00415 1.56123 lineto
123.16956 1.56123 lineto
 closepath
[0 -1 1 0 0 0] concat stroke grestore
 1 1 1 setrgbcolor
newpath 104.08685 -8.6739 moveto
106.38742 -8.6739 108.59348 -7.75987 110.22011 -6.13326 curveto
111.84673 -4.50662 112.76076 -2.30057 112.76076 0 curveto
112.76076 2.30057 111.84673 4.50662 110.22011 6.13326 curveto
108.59348 7.75987 106.38742 8.6739 104.08685 8.6739 curveto
101.78629 8.6739 99.58023 7.75987 97.9536 6.13326 curveto
96.32698 4.50662 95.41295 2.30057 95.41295 0 curveto
95.41295 -2.30057 96.32698 -4.50662 97.9536 -6.13326 curveto
99.58023 -7.75987 101.78629 -8.6739 104.08685 -8.6739 curveto closepath fill
 0 0 0 setrgbcolor
gsave newpath 104.08685 -8.6739 moveto
106.38742 -8.6739 108.59348 -7.75987 110.22011 -6.13326 curveto
111.84673 -4.50662 112.76076 -2.30057 112.76076 0 curveto
112.76076 2.30057 111.84673 4.50662 110.22011 6.13326 curveto
108.59348 7.75987 106.38742 8.6739 104.08685 8.6739 curveto
101.78629 8.6739 99.58023 7.75987 97.9536 6.13326 curveto
96.32698 4.50662 95.41295 2.30057 95.41295 0 curveto
95.41295 -2.30057 96.32698 -4.50662 97.9536 -6.13326 curveto
99.58023 -7.75987 101.78629 -8.6739 104.08685 -8.6739 curveto closepath
[0 -1 1 0 0 0] concat stroke grestore
gsave newpath 99.1117 -7.10526 moveto
99.1117 -9.31363 101.5977 -10.4088 104.08685 -10.4088 curveto
106.576 -10.4088 109.06201 -9.31363 109.06201 -7.10526 curveto
[0 -1 1 0 0 0] concat stroke grestore
gsave newpath 175.21298 -3.6429 moveto
137.04758 -3.6429 lineto
137.04758 1.56123 lineto
175.21298 1.56123 lineto
 closepath
[0 -1 1 0 0 0] concat stroke grestore
 1 1 1 setrgbcolor
newpath 156.13028 -8.6739 moveto
158.43085 -8.6739 160.6369 -7.75987 162.26353 -6.13326 curveto
163.89015 -4.50662 164.80418 -2.30057 164.80418 0 curveto
164.80418 2.30057 163.89015 4.50662 162.26353 6.13326 curveto
160.6369 7.75987 158.43085 8.6739 156.13028 8.6739 curveto
153.82971 8.6739 151.62366 7.75987 149.99702 6.13326 curveto
148.3704 4.50662 147.45638 2.30057 147.45638 0 curveto
147.45638 -2.30057 148.3704 -4.50662 149.99702 -6.13326 curveto
151.62366 -7.75987 153.82971 -8.6739 156.13028 -8.6739 curveto closepath fill
 0 0 0 setrgbcolor
gsave newpath 156.13028 -8.6739 moveto
158.43085 -8.6739 160.6369 -7.75987 162.26353 -6.13326 curveto
163.89015 -4.50662 164.80418 -2.30057 164.80418 0 curveto
164.80418 2.30057 163.89015 4.50662 162.26353 6.13326 curveto
160.6369 7.75987 158.43085 8.6739 156.13028 8.6739 curveto
153.82971 8.6739 151.62366 7.75987 149.99702 6.13326 curveto
148.3704 4.50662 147.45638 2.30057 147.45638 0 curveto
147.45638 -2.30057 148.3704 -4.50662 149.99702 -6.13326 curveto
151.62366 -7.75987 153.82971 -8.6739 156.13028 -8.6739 curveto closepath
[0 -1 1 0 0 0] concat stroke grestore
gsave newpath 151.15512 -7.10526 moveto
151.15512 -9.31363 153.64113 -10.4088 156.13028 -10.4088 curveto
158.61943 -10.4088 161.10544 -9.31363 161.10544 -7.10526 curveto
[0 -1 1 0 0 0] concat stroke grestore
gsave newpath 227.25641 -3.6429 moveto
189.091 -3.6429 lineto
189.091 1.56123 lineto
227.25641 1.56123 lineto
 closepath
[0 -1 1 0 0 0] concat stroke grestore
 1 1 1 setrgbcolor
newpath 208.1737 -8.6739 moveto
210.47427 -8.6739 212.68033 -7.75987 214.30696 -6.13326 curveto
215.93358 -4.50662 216.84761 -2.30057 216.84761 0 curveto
216.84761 2.30057 215.93358 4.50662 214.30696 6.13326 curveto
212.68033 7.75987 210.47427 8.6739 208.1737 8.6739 curveto
205.87314 8.6739 203.66708 7.75987 202.04045 6.13326 curveto
200.41383 4.50662 199.4998 2.30057 199.4998 0 curveto
199.4998 -2.30057 200.41383 -4.50662 202.04045 -6.13326 curveto
203.66708 -7.75987 205.87314 -8.6739 208.1737 -8.6739 curveto closepath fill
 0 0 0 setrgbcolor
gsave newpath 208.1737 -8.6739 moveto
210.47427 -8.6739 212.68033 -7.75987 214.30696 -6.13326 curveto
215.93358 -4.50662 216.84761 -2.30057 216.84761 0 curveto
216.84761 2.30057 215.93358 4.50662 214.30696 6.13326 curveto
212.68033 7.75987 210.47427 8.6739 208.1737 8.6739 curveto
205.87314 8.6739 203.66708 7.75987 202.04045 6.13326 curveto
200.41383 4.50662 199.4998 2.30057 199.4998 0 curveto
199.4998 -2.30057 200.41383 -4.50662 202.04045 -6.13326 curveto
203.66708 -7.75987 205.87314 -8.6739 208.1737 -8.6739 curveto closepath
[0 -1 1 0 0 0] concat stroke grestore
gsave newpath 203.19855 -7.10526 moveto
203.19855 -9.31363 205.68456 -10.4088 208.1737 -10.4088 curveto
210.66286 -10.4088 213.14886 -9.31363 213.14886 -7.10526 curveto
[0 -1 1 0 0 0] concat stroke grestore
gsave newpath 279.29984 -3.6429 moveto
241.13443 -3.6429 lineto
241.13443 1.56123 lineto
279.29984 1.56123 lineto
 closepath
[0 -1 1 0 0 0] concat stroke grestore
 1 1 1 setrgbcolor
newpath 260.21713 -8.6739 moveto
262.5177 -8.6739 264.72375 -7.75987 266.35039 -6.13326 curveto
267.977 -4.50662 268.89104 -2.30057 268.89104 0 curveto
268.89104 2.30057 267.977 4.50662 266.35039 6.13326 curveto
264.72375 7.75987 262.5177 8.6739 260.21713 8.6739 curveto
257.91656 8.6739 255.71051 7.75987 254.08388 6.13326 curveto
252.45726 4.50662 251.54323 2.30057 251.54323 0 curveto
251.54323 -2.30057 252.45726 -4.50662 254.08388 -6.13326 curveto
255.71051 -7.75987 257.91656 -8.6739 260.21713 -8.6739 curveto closepath fill
 0 0 0 setrgbcolor
gsave newpath 260.21713 -8.6739 moveto
262.5177 -8.6739 264.72375 -7.75987 266.35039 -6.13326 curveto
267.977 -4.50662 268.89104 -2.30057 268.89104 0 curveto
268.89104 2.30057 267.977 4.50662 266.35039 6.13326 curveto
264.72375 7.75987 262.5177 8.6739 260.21713 8.6739 curveto
257.91656 8.6739 255.71051 7.75987 254.08388 6.13326 curveto
252.45726 4.50662 251.54323 2.30057 251.54323 0 curveto
251.54323 -2.30057 252.45726 -4.50662 254.08388 -6.13326 curveto
255.71051 -7.75987 257.91656 -8.6739 260.21713 -8.6739 curveto closepath
[0 -1 1 0 0 0] concat stroke grestore
gsave newpath 255.24197 -7.10526 moveto
255.24197 -9.31363 257.72798 -10.4088 260.21713 -10.4088 curveto
262.70628 -10.4088 265.19229 -9.31363 265.19229 -7.10526 curveto
[0 -1 1 0 0 0] concat stroke grestore
showpage
%%EOF
