%!PS-Adobe-3.0 EPSF-3.0
%%BoundingBox: 41 -20 270 20 
%%HiResBoundingBox: 41.38463 -19.3327 269.14104 19.3327 
%%Creator: MetaPost 1.211
%%CreationDate: 2013.05.22:1709
%%Pages: 1
%%DocumentResources: procset mpost-minimal
%%DocumentSuppliedResources: procset mpost-minimal
%%EndComments
%%BeginProlog
%%BeginResource: procset mpost-minimal
/bd{bind def}bind def/fshow {exch findfont exch scalefont setfont show}bd
/fcp{findfont dup length dict begin{1 index/FID ne{def}{pop pop}ifelse}forall}bd
/fmc{FontMatrix dup length array copy dup dup}bd/fmd{/FontMatrix exch def}bd
/Amul{4 -1 roll exch mul 1000 div}bd/ExtendFont{fmc 0 get Amul 0 exch put fmd}bd
/ScaleFont{dup fmc 0 get Amul 0 exch put dup dup 3 get Amul 3 exch put fmd}bd
/SlantFont{fmc 2 get dup 0 eq{pop 1}if Amul FontMatrix 0 get mul 2 exch put fmd}bd
%%EndResource
%%EndProlog
%%BeginSetup
%%EndSetup
%%Page: 1 1
 0 0 0 setrgbcolor 0 0.5 dtransform truncate idtransform setlinewidth pop [] 0 setdash 0 setlinejoin
 10 setmiterlimit
gsave newpath 48.40053 -19.0827 moveto
48.40053 19.0827 lineto
53.60466 19.0827 lineto
53.60466 -19.0827 lineto
 closepath
-1 -1 scale stroke grestore
 1 1 1 setrgbcolor
newpath 43.36952 0 moveto
43.36952 -2.30057 44.28355 -4.50662 45.91017 -6.13326 curveto
47.5368 -7.75987 49.74286 -8.6739 52.04343 -8.6739 curveto
54.344 -8.6739 56.55005 -7.75987 58.17668 -6.13326 curveto
59.8033 -4.50662 60.71733 -2.30057 60.71733 0 curveto
60.71733 2.30057 59.8033 4.50662 58.17668 6.13326 curveto
56.55005 7.75987 54.344 8.6739 52.04343 8.6739 curveto
49.74286 8.6739 47.5368 7.75987 45.91017 6.13326 curveto
44.28355 4.50662 43.36952 2.30057 43.36952 0 curveto closepath fill
 0 0 0 setrgbcolor
gsave newpath 43.36952 0 moveto
43.36952 -2.30057 44.28355 -4.50662 45.91017 -6.13326 curveto
47.5368 -7.75987 49.74286 -8.6739 52.04343 -8.6739 curveto
54.344 -8.6739 56.55005 -7.75987 58.17668 -6.13326 curveto
59.8033 -4.50662 60.71733 -2.30057 60.71733 0 curveto
60.71733 2.30057 59.8033 4.50662 58.17668 6.13326 curveto
56.55005 7.75987 54.344 8.6739 52.04343 8.6739 curveto
49.74286 8.6739 47.5368 7.75987 45.91017 6.13326 curveto
44.28355 4.50662 43.36952 2.30057 43.36952 0 curveto closepath
-1 -1 scale stroke grestore
 1 setlinecap
gsave newpath 44.93817 4.97516 moveto
42.7298 4.97516 41.63463 2.48915 41.63463 0 curveto
41.63463 -2.48915 42.7298 -4.97516 44.93817 -4.97516 curveto
-1 -1 scale stroke grestore
newpath 107.72975 19.0827 moveto
107.72975 -19.0827 lineto
102.52562 -19.0827 lineto
102.52562 19.0827 lineto
 closepath stroke
 1 1 1 setrgbcolor
newpath 112.76076 0 moveto
112.76076 2.30057 111.84673 4.50662 110.22011 6.13326 curveto
108.59348 7.75987 106.38742 8.6739 104.08685 8.6739 curveto
101.78629 8.6739 99.58023 7.75987 97.9536 6.13326 curveto
96.32698 4.50662 95.41295 2.30057 95.41295 0 curveto
95.41295 -2.30057 96.32698 -4.50662 97.9536 -6.13326 curveto
99.58023 -7.75987 101.78629 -8.6739 104.08685 -8.6739 curveto
106.38742 -8.6739 108.59348 -7.75987 110.22011 -6.13326 curveto
111.84673 -4.50662 112.76076 -2.30057 112.76076 0 curveto closepath fill
 0 0 0 setrgbcolor
newpath 112.76076 0 moveto
112.76076 2.30057 111.84673 4.50662 110.22011 6.13326 curveto
108.59348 7.75987 106.38742 8.6739 104.08685 8.6739 curveto
101.78629 8.6739 99.58023 7.75987 97.9536 6.13326 curveto
96.32698 4.50662 95.41295 2.30057 95.41295 0 curveto
95.41295 -2.30057 96.32698 -4.50662 97.9536 -6.13326 curveto
99.58023 -7.75987 101.78629 -8.6739 104.08685 -8.6739 curveto
106.38742 -8.6739 108.59348 -7.75987 110.22011 -6.13326 curveto
111.84673 -4.50662 112.76076 -2.30057 112.76076 0 curveto closepath stroke
newpath 111.19211 -4.97516 moveto
113.40048 -4.97516 114.49565 -2.48915 114.49565 0 curveto
114.49565 2.48915 113.40048 4.97516 111.19211 4.97516 curveto stroke
newpath 159.77318 19.0827 moveto
159.77318 -19.0827 lineto
154.56905 -19.0827 lineto
154.56905 19.0827 lineto
 closepath stroke
 1 1 1 setrgbcolor
newpath 164.80418 0 moveto
164.80418 2.30057 163.89015 4.50662 162.26353 6.13326 curveto
160.6369 7.75987 158.43085 8.6739 156.13028 8.6739 curveto
153.82971 8.6739 151.62366 7.75987 149.99702 6.13326 curveto
148.3704 4.50662 147.45638 2.30057 147.45638 0 curveto
147.45638 -2.30057 148.3704 -4.50662 149.99702 -6.13326 curveto
151.62366 -7.75987 153.82971 -8.6739 156.13028 -8.6739 curveto
158.43085 -8.6739 160.6369 -7.75987 162.26353 -6.13326 curveto
163.89015 -4.50662 164.80418 -2.30057 164.80418 0 curveto closepath fill
 0 0 0 setrgbcolor
newpath 164.80418 0 moveto
164.80418 2.30057 163.89015 4.50662 162.26353 6.13326 curveto
160.6369 7.75987 158.43085 8.6739 156.13028 8.6739 curveto
153.82971 8.6739 151.62366 7.75987 149.99702 6.13326 curveto
148.3704 4.50662 147.45638 2.30057 147.45638 0 curveto
147.45638 -2.30057 148.3704 -4.50662 149.99702 -6.13326 curveto
151.62366 -7.75987 153.82971 -8.6739 156.13028 -8.6739 curveto
158.43085 -8.6739 160.6369 -7.75987 162.26353 -6.13326 curveto
163.89015 -4.50662 164.80418 -2.30057 164.80418 0 curveto closepath stroke
newpath 163.23553 -4.97516 moveto
165.44391 -4.97516 166.53908 -2.48915 166.53908 0 curveto
166.53908 2.48915 165.44391 4.97516 163.23553 4.97516 curveto stroke
gsave newpath 204.5308 -19.0827 moveto
204.5308 19.0827 lineto
209.73494 19.0827 lineto
209.73494 -19.0827 lineto
 closepath
-1 -1 scale stroke grestore
 1 1 1 setrgbcolor
newpath 199.4998 0 moveto
199.4998 -2.30057 200.41383 -4.50662 202.04045 -6.13326 curveto
203.66708 -7.75987 205.87314 -8.6739 208.1737 -8.6739 curveto
210.47427 -8.6739 212.68033 -7.75987 214.30696 -6.13326 curveto
215.93358 -4.50662 216.84761 -2.30057 216.84761 0 curveto
216.84761 2.30057 215.93358 4.50662 214.30696 6.13326 curveto
212.68033 7.75987 210.47427 8.6739 208.1737 8.6739 curveto
205.87314 8.6739 203.66708 7.75987 202.04045 6.13326 curveto
200.41383 4.50662 199.4998 2.30057 199.4998 0 curveto closepath fill
 0 0 0 setrgbcolor
gsave newpath 199.4998 0 moveto
199.4998 -2.30057 200.41383 -4.50662 202.04045 -6.13326 curveto
203.66708 -7.75987 205.87314 -8.6739 208.1737 -8.6739 curveto
210.47427 -8.6739 212.68033 -7.75987 214.30696 -6.13326 curveto
215.93358 -4.50662 216.84761 -2.30057 216.84761 0 curveto
216.84761 2.30057 215.93358 4.50662 214.30696 6.13326 curveto
212.68033 7.75987 210.47427 8.6739 208.1737 8.6739 curveto
205.87314 8.6739 203.66708 7.75987 202.04045 6.13326 curveto
200.41383 4.50662 199.4998 2.30057 199.4998 0 curveto closepath
-1 -1 scale stroke grestore
gsave newpath 201.06845 4.97516 moveto
198.86008 4.97516 197.76491 2.48915 197.76491 0 curveto
197.76491 -2.48915 198.86008 -4.97516 201.06845 -4.97516 curveto
-1 -1 scale stroke grestore
gsave newpath 256.57423 -19.0827 moveto
256.57423 19.0827 lineto
261.77837 19.0827 lineto
261.77837 -19.0827 lineto
 closepath
-1 -1 scale stroke grestore
 1 1 1 setrgbcolor
newpath 251.54323 0 moveto
251.54323 -2.30057 252.45726 -4.50662 254.08388 -6.13326 curveto
255.71051 -7.75987 257.91656 -8.6739 260.21713 -8.6739 curveto
262.5177 -8.6739 264.72375 -7.75987 266.35039 -6.13326 curveto
267.977 -4.50662 268.89104 -2.30057 268.89104 0 curveto
268.89104 2.30057 267.977 4.50662 266.35039 6.13326 curveto
264.72375 7.75987 262.5177 8.6739 260.21713 8.6739 curveto
257.91656 8.6739 255.71051 7.75987 254.08388 6.13326 curveto
252.45726 4.50662 251.54323 2.30057 251.54323 0 curveto closepath fill
 0 0 0 setrgbcolor
gsave newpath 251.54323 0 moveto
251.54323 -2.30057 252.45726 -4.50662 254.08388 -6.13326 curveto
255.71051 -7.75987 257.91656 -8.6739 260.21713 -8.6739 curveto
262.5177 -8.6739 264.72375 -7.75987 266.35039 -6.13326 curveto
267.977 -4.50662 268.89104 -2.30057 268.89104 0 curveto
268.89104 2.30057 267.977 4.50662 266.35039 6.13326 curveto
264.72375 7.75987 262.5177 8.6739 260.21713 8.6739 curveto
257.91656 8.6739 255.71051 7.75987 254.08388 6.13326 curveto
252.45726 4.50662 251.54323 2.30057 251.54323 0 curveto closepath
-1 -1 scale stroke grestore
gsave newpath 253.11188 4.97516 moveto
250.9035 4.97516 249.80833 2.48915 249.80833 0 curveto
249.80833 -2.48915 250.9035 -4.97516 253.11188 -4.97516 curveto
-1 -1 scale stroke grestore
newpath 182.152 0 moveto
190.8259 0 lineto stroke
newpath 187.13042 -1.53076 moveto
190.8259 0 lineto
187.13042 1.53076 lineto
 closepath
gsave fill grestore stroke
newpath 182.152 0 moveto
173.47809 0 lineto stroke
newpath 177.17357 1.53076 moveto
173.47809 0 lineto
177.17357 -1.53076 lineto
 closepath
gsave fill grestore stroke
showpage
%%EOF
