%!PS-Adobe-3.0 EPSF-3.0
%%BoundingBox: -3 -3 100 82 
%%HiResBoundingBox: -2.05011 -2.05011 99.25 81.25 
%%Creator: MetaPost 1.211
%%CreationDate: 2013.05.22:1709
%%Pages: 1
%%DocumentResources: procset mpost-minimal
%%DocumentSuppliedResources: procset mpost-minimal
%%EndComments
%%BeginProlog
%%BeginResource: procset mpost-minimal
/bd{bind def}bind def/fshow {exch findfont exch scalefont setfont show}bd
/fcp{findfont dup length dict begin{1 index/FID ne{def}{pop pop}ifelse}forall}bd
/fmc{FontMatrix dup length array copy dup dup}bd/fmd{/FontMatrix exch def}bd
/Amul{4 -1 roll exch mul 1000 div}bd/ExtendFont{fmc 0 get Amul 0 exch put fmd}bd
/ScaleFont{dup fmc 0 get Amul 0 exch put dup dup 3 get Amul 3 exch put fmd}bd
/SlantFont{fmc 2 get dup 0 eq{pop 1}if Amul FontMatrix 0 get mul 2 exch put fmd}bd
%%EndResource
%%EndProlog
%%BeginSetup
%%EndSetup
%%Page: 1 1
 0 0 0 setrgbcolor 0 0.5 dtransform truncate idtransform setlinewidth pop [] 0 setdash 1 setlinecap
 0 setlinejoin 10 setmiterlimit
newpath 0 0 moveto
99 0 lineto stroke
newpath 95.3044 -1.5308 moveto
99 0 lineto
95.3044 1.5308 lineto
 closepath
gsave fill grestore stroke
 0.5 0 dtransform exch truncate exch idtransform pop setlinewidth
newpath 0 0 moveto
0 81 lineto stroke
 0 0.5 dtransform truncate idtransform setlinewidth pop
newpath 1.5306 77.3049 moveto
0 81 lineto
-1.5306 77.3049 lineto
 closepath
gsave fill grestore stroke
 0.5 0 dtransform exch truncate exch idtransform pop setlinewidth
newpath 18 -1.80011 moveto
18 1.80011 lineto stroke
newpath 36 -1.80011 moveto
36 1.80011 lineto stroke
newpath 54 -1.80011 moveto
54 1.80011 lineto stroke
newpath 72 -1.80011 moveto
72 1.80011 lineto stroke
newpath 90 -1.80011 moveto
90 1.80011 lineto stroke
 0 0.5 dtransform truncate idtransform setlinewidth pop
newpath -1.80011 18 moveto
1.80011 18 lineto stroke
newpath -1.80011 36 moveto
1.80011 36 lineto stroke
newpath -1.80011 54 moveto
1.80011 54 lineto stroke
newpath -1.80011 72 moveto
1.80011 72 lineto stroke
newpath 54.99626 18 moveto
54.99626 18.26424 54.89128 18.51762 54.70445 18.70445 curveto
54.51762 18.89128 54.26424 18.99626 54 18.99626 curveto
53.73576 18.99626 53.48238 18.89128 53.29555 18.70445 curveto
53.10872 18.51762 53.00374 18.26424 53.00374 18 curveto
53.00374 17.73576 53.10872 17.48238 53.29555 17.29555 curveto
53.48238 17.10872 53.73576 17.00374 54 17.00374 curveto
54.26424 17.00374 54.51762 17.10872 54.70445 17.29555 curveto
54.89128 17.48238 54.99626 17.73576 54.99626 18 curveto closepath fill
newpath 36 54 moveto
54 36 lineto
72 54 lineto
54 72 lineto
 closepath stroke
 0.3 0.3 0.3 setrgbcolor
newpath 36 54 moveto
54 54 lineto
54 72 lineto
 closepath fill
 0 0 0 setrgbcolor 0 1.4944 dtransform truncate idtransform setlinewidth pop 0 setlinecap
newpath 18 54 moveto
54 54 lineto stroke
showpage
%%EOF
