%!PS-Adobe-3.0 EPSF-3.0
%%BoundingBox: -1 -30 129 58 
%%HiResBoundingBox: -0.99626 -29.34267 128.55508 57.68907 
%%Creator: MetaPost 1.211
%%CreationDate: 2013.05.22:1709
%%Pages: 1
%%DocumentResources: procset mpost-minimal
%%DocumentSuppliedResources: procset mpost-minimal
%%EndComments
%%BeginProlog
%%BeginResource: procset mpost-minimal
/bd{bind def}bind def/fshow {exch findfont exch scalefont setfont show}bd
/fcp{findfont dup length dict begin{1 index/FID ne{def}{pop pop}ifelse}forall}bd
/fmc{FontMatrix dup length array copy dup dup}bd/fmd{/FontMatrix exch def}bd
/Amul{4 -1 roll exch mul 1000 div}bd/ExtendFont{fmc 0 get Amul 0 exch put fmd}bd
/ScaleFont{dup fmc 0 get Amul 0 exch put dup dup 3 get Amul 3 exch put fmd}bd
/SlantFont{fmc 2 get dup 0 eq{pop 1}if Amul FontMatrix 0 get mul 2 exch put fmd}bd
%%EndResource
%%EndProlog
%%BeginSetup
%%EndSetup
%%Page: 1 1
 0.6 0.6 0.6 setrgbcolor
newpath 0 0 moveto
14.1732 0 lineto
14.1732 14.1732 lineto
0 14.1732 lineto
 closepath fill
 0 0 0 setrgbcolor 0 1.99252 dtransform truncate idtransform setlinewidth pop [] 0 setdash
 0 setlinejoin 10 setmiterlimit
newpath 0 0 moveto
14.1732 0 lineto
14.1732 14.1732 lineto
0 14.1732 lineto
 closepath stroke
newpath 14.1732 -28.3464 moveto
28.3464 -28.3464 lineto
28.3464 -14.1732 lineto
14.1732 -14.1732 lineto
 closepath stroke
newpath 14.1732 -14.1732 moveto
28.3464 -14.1732 lineto
28.3464 0 lineto
14.1732 0 lineto
 closepath stroke
 0.6 0.6 0.6 setrgbcolor
newpath 14.1732 0 moveto
28.3464 0 lineto
28.3464 14.1732 lineto
14.1732 14.1732 lineto
 closepath fill
 0 0 0 setrgbcolor
newpath 14.1732 0 moveto
28.3464 0 lineto
28.3464 14.1732 lineto
14.1732 14.1732 lineto
 closepath stroke
newpath 14.1732 14.1732 moveto
28.3464 14.1732 lineto
28.3464 28.3464 lineto
14.1732 28.3464 lineto
 closepath stroke
newpath 28.3464 -28.3464 moveto
42.5196 -28.3464 lineto
42.5196 -14.1732 lineto
28.3464 -14.1732 lineto
 closepath stroke
newpath 28.3464 -14.1732 moveto
42.5196 -14.1732 lineto
42.5196 0 lineto
28.3464 0 lineto
 closepath stroke
 0.6 0.6 0.6 setrgbcolor
newpath 28.3464 0 moveto
42.5196 0 lineto
42.5196 14.1732 lineto
28.3464 14.1732 lineto
 closepath fill
 0 0 0 setrgbcolor
newpath 28.3464 0 moveto
42.5196 0 lineto
42.5196 14.1732 lineto
28.3464 14.1732 lineto
 closepath stroke
newpath 28.3464 14.1732 moveto
42.5196 14.1732 lineto
42.5196 28.3464 lineto
28.3464 28.3464 lineto
 closepath stroke
newpath 28.3464 28.3464 moveto
42.5196 28.3464 lineto
42.5196 42.5196 lineto
28.3464 42.5196 lineto
 closepath stroke
newpath 28.3464 42.5196 moveto
42.5196 42.5196 lineto
42.5196 56.69281 lineto
28.3464 56.69281 lineto
 closepath stroke
 0.6 0.6 0.6 setrgbcolor
newpath 42.5196 0 moveto
56.69281 0 lineto
56.69281 14.1732 lineto
42.5196 14.1732 lineto
 closepath fill
 0 0 0 setrgbcolor
newpath 42.5196 0 moveto
56.69281 0 lineto
56.69281 14.1732 lineto
42.5196 14.1732 lineto
 closepath stroke
newpath 42.5196 14.1732 moveto
56.69281 14.1732 lineto
56.69281 28.3464 lineto
42.5196 28.3464 lineto
 closepath stroke
newpath 42.5196 28.3464 moveto
56.69281 28.3464 lineto
56.69281 42.5196 lineto
42.5196 42.5196 lineto
 closepath stroke
newpath 56.69281 -14.1732 moveto
70.86601 -14.1732 lineto
70.86601 0 lineto
56.69281 0 lineto
 closepath stroke
 0.6 0.6 0.6 setrgbcolor
newpath 56.69281 0 moveto
70.86601 0 lineto
70.86601 14.1732 lineto
56.69281 14.1732 lineto
 closepath fill
 0 0 0 setrgbcolor
newpath 56.69281 0 moveto
70.86601 0 lineto
70.86601 14.1732 lineto
56.69281 14.1732 lineto
 closepath stroke
newpath 56.69281 14.1732 moveto
70.86601 14.1732 lineto
70.86601 28.3464 lineto
56.69281 28.3464 lineto
 closepath stroke
newpath 56.69281 28.3464 moveto
70.86601 28.3464 lineto
70.86601 42.5196 lineto
56.69281 42.5196 lineto
 closepath stroke
newpath 70.86601 -28.3464 moveto
85.03922 -28.3464 lineto
85.03922 -14.1732 lineto
70.86601 -14.1732 lineto
 closepath stroke
newpath 70.86601 -14.1732 moveto
85.03922 -14.1732 lineto
85.03922 0 lineto
70.86601 0 lineto
 closepath stroke
 0.6 0.6 0.6 setrgbcolor
newpath 70.86601 0 moveto
85.03922 0 lineto
85.03922 14.1732 lineto
70.86601 14.1732 lineto
 closepath fill
 0 0 0 setrgbcolor
newpath 70.86601 0 moveto
85.03922 0 lineto
85.03922 14.1732 lineto
70.86601 14.1732 lineto
 closepath stroke
newpath 70.86601 14.1732 moveto
85.03922 14.1732 lineto
85.03922 28.3464 lineto
70.86601 28.3464 lineto
 closepath stroke
 0.6 0.6 0.6 setrgbcolor
newpath 85.03922 0 moveto
99.21242 0 lineto
99.21242 14.1732 lineto
85.03922 14.1732 lineto
 closepath fill
 0 0 0 setrgbcolor
newpath 85.03922 0 moveto
99.21242 0 lineto
99.21242 14.1732 lineto
85.03922 14.1732 lineto
 closepath stroke
newpath 85.03922 14.1732 moveto
99.21242 14.1732 lineto
99.21242 28.3464 lineto
85.03922 28.3464 lineto
 closepath stroke
newpath 85.03922 28.3464 moveto
99.21242 28.3464 lineto
99.21242 42.5196 lineto
85.03922 42.5196 lineto
 closepath stroke
newpath 99.21242 -14.1732 moveto
113.38562 -14.1732 lineto
113.38562 0 lineto
99.21242 0 lineto
 closepath stroke
 0.6 0.6 0.6 setrgbcolor
newpath 99.21242 0 moveto
113.38562 0 lineto
113.38562 14.1732 lineto
99.21242 14.1732 lineto
 closepath fill
 0 0 0 setrgbcolor
newpath 99.21242 0 moveto
113.38562 0 lineto
113.38562 14.1732 lineto
99.21242 14.1732 lineto
 closepath stroke
newpath 99.21242 14.1732 moveto
113.38562 14.1732 lineto
113.38562 28.3464 lineto
99.21242 28.3464 lineto
 closepath stroke
newpath 99.21242 28.3464 moveto
113.38562 28.3464 lineto
113.38562 42.5196 lineto
99.21242 42.5196 lineto
 closepath stroke
 0.6 0.6 0.6 setrgbcolor
newpath 113.38562 0 moveto
127.55882 0 lineto
127.55882 14.1732 lineto
113.38562 14.1732 lineto
 closepath fill
 0 0 0 setrgbcolor
newpath 113.38562 0 moveto
127.55882 0 lineto
127.55882 14.1732 lineto
113.38562 14.1732 lineto
 closepath stroke
showpage
%%EOF
